<?xml version="1.0" encoding="UTF-8"?>
<svg width="13px" height="13px" viewBox="0 0 13 13" version="1.1" xmlns="http://www.w3.org/2000/svg" xmlns:xlink="http://www.w3.org/1999/xlink">
    <!-- Generator: Sketch 57.1 (83088) - https://sketch.com -->
    <title>calendar</title>
    <desc>Created with Sketch.</desc>
    <g id="Page-1" stroke="none" stroke-width="1" fill="none" fill-rule="evenodd">
        <g id="Desktop-HD-v2" transform="translate(-175.000000, -2680.000000)" fill="#000000" fill-rule="nonzero">
            <g id="news" transform="translate(51.000000, 2528.000000)">
                <g id="calendar" transform="translate(124.000000, 152.000000)">
                    <path d="M0.928571429,12.0714286 L3.01785714,12.0714286 L3.01785714,9.98214286 L0.928571429,9.98214286 L0.928571429,12.0714286 Z M3.48214286,12.0714286 L5.80357143,12.0714286 L5.80357143,9.98214286 L3.48214286,9.98214286 L3.48214286,12.0714286 Z M0.928571429,9.51785714 L3.01785714,9.51785714 L3.01785714,7.19642857 L0.928571429,7.19642857 L0.928571429,9.51785714 Z M3.48214286,9.51785714 L5.80357143,9.51785714 L5.80357143,7.19642857 L3.48214286,7.19642857 L3.48214286,9.51785714 Z M0.928571429,6.73214286 L3.01785714,6.73214286 L3.01785714,4.64285714 L0.928571429,4.64285714 L0.928571429,6.73214286 Z M6.26785714,12.0714286 L8.58928571,12.0714286 L8.58928571,9.98214286 L6.26785714,9.98214286 L6.26785714,12.0714286 Z M3.48214286,6.73214286 L5.80357143,6.73214286 L5.80357143,4.64285714 L3.48214286,4.64285714 L3.48214286,6.73214286 Z M9.05357143,12.0714286 L11.1428571,12.0714286 L11.1428571,9.98214286 L9.05357143,9.98214286 L9.05357143,12.0714286 Z M6.26785714,9.51785714 L8.58928571,9.51785714 L8.58928571,7.19642857 L6.26785714,7.19642857 L6.26785714,9.51785714 Z M3.71428571,3.25 L3.71428571,1.16071429 C3.71428571,1.09784226 3.69131324,1.04343378 3.6453683,0.997488839 C3.59942336,0.951543899 3.54501488,0.928571429 3.48214286,0.928571429 L3.01785714,0.928571429 C2.95498512,0.928571429 2.90057664,0.951543899 2.8546317,0.997488839 C2.80868676,1.04343378 2.78571429,1.09784226 2.78571429,1.16071429 L2.78571429,3.25 C2.78571429,3.31287202 2.80868676,3.36728051 2.8546317,3.41322545 C2.90057664,3.45917039 2.95498512,3.48214286 3.01785714,3.48214286 L3.48214286,3.48214286 C3.54501488,3.48214286 3.59942336,3.45917039 3.6453683,3.41322545 C3.69131324,3.36728051 3.71428571,3.31287202 3.71428571,3.25 Z M9.05357143,9.51785714 L11.1428571,9.51785714 L11.1428571,7.19642857 L9.05357143,7.19642857 L9.05357143,9.51785714 Z M6.26785714,6.73214286 L8.58928571,6.73214286 L8.58928571,4.64285714 L6.26785714,4.64285714 L6.26785714,6.73214286 Z M9.05357143,6.73214286 L11.1428571,6.73214286 L11.1428571,4.64285714 L9.05357143,4.64285714 L9.05357143,6.73214286 Z M9.28571429,3.25 L9.28571429,1.16071429 C9.28571429,1.09784226 9.26274182,1.04343378 9.21679688,0.997488839 C9.17085193,0.951543899 9.11644345,0.928571429 9.05357143,0.928571429 L8.58928571,0.928571429 C8.52641369,0.928571429 8.47200521,0.951543899 8.42606027,0.997488839 C8.38011533,1.04343378 8.35714286,1.09784226 8.35714286,1.16071429 L8.35714286,3.25 C8.35714286,3.31287202 8.38011533,3.36728051 8.42606027,3.41322545 C8.47200521,3.45917039 8.52641369,3.48214286 8.58928571,3.48214286 L9.05357143,3.48214286 C9.11644345,3.48214286 9.17085193,3.45917039 9.21679688,3.41322545 C9.26274182,3.36728051 9.28571429,3.31287202 9.28571429,3.25 Z M12.0714286,2.78571429 L12.0714286,12.0714286 C12.0714286,12.3229167 11.9795387,12.5405506 11.7957589,12.7243304 C11.6119792,12.9081101 11.3943452,13 11.1428571,13 L0.928571429,13 C0.677083333,13 0.459449405,12.9081101 0.275669643,12.7243304 C0.091889881,12.5405506 0,12.3229167 0,12.0714286 L0,2.78571429 C0,2.53422619 0.091889881,2.31659226 0.275669643,2.1328125 C0.459449405,1.94903274 0.677083333,1.85714286 0.928571429,1.85714286 L1.85714286,1.85714286 L1.85714286,1.16071429 C1.85714286,0.841517857 1.97079613,0.568266369 2.19810268,0.340959821 C2.42540923,0.113653274 2.69866071,0 3.01785714,0 L3.48214286,0 C3.80133929,0 4.07459077,0.113653274 4.30189732,0.340959821 C4.52920387,0.568266369 4.64285714,0.841517857 4.64285714,1.16071429 L4.64285714,1.85714286 L7.42857143,1.85714286 L7.42857143,1.16071429 C7.42857143,0.841517857 7.5422247,0.568266369 7.76953125,0.340959821 C7.9968378,0.113653274 8.27008929,0 8.58928571,0 L9.05357143,0 C9.37276786,0 9.64601935,0.113653274 9.87332589,0.340959821 C10.1006324,0.568266369 10.2142857,0.841517857 10.2142857,1.16071429 L10.2142857,1.85714286 L11.1428571,1.85714286 C11.3943452,1.85714286 11.6119792,1.94903274 11.7957589,2.1328125 C11.9795387,2.31659226 12.0714286,2.53422619 12.0714286,2.78571429 Z" id="Shape"></path>
                </g>
            </g>
        </g>
    </g>
</svg>