<?xml version="1.0" encoding="utf-8"?>
<!-- Generator: Adobe Illustrator 25.1.0, SVG Export Plug-In . SVG Version: 6.00 Build 0)  -->
<svg version="1.1" id="Layer_1" xmlns="http://www.w3.org/2000/svg" xmlns:xlink="http://www.w3.org/1999/xlink" x="0px" y="0px"
	 viewBox="0 0 9 9" style="enable-background:new 0 0 9 9;" xml:space="preserve">
<style type="text/css">
	.st0{fill:#211261;}
</style>
<path class="st0" d="M4,8.7C4.3,9,4.8,9,5.1,8.7l3.6-3.6C9.6,4.3,8.3,3,7.5,3.9L5.9,5.4C5.7,5.6,5.1,6.3,4.5,6.3S3.3,5.5,3.2,5.4
	L1.5,3.9C0.7,3-0.6,4.3,0.3,5.1L4,8.7z"/>
</svg>
