<svg width="19" height="19" viewBox="0 0 19 19" fill="none" xmlns="http://www.w3.org/2000/svg">
<path d="M14.0758 9.29408L16.5141 6.85575C17.1158 6.25408 17.4166 5.46242 17.4166 4.67075C17.4166 3.87909 17.1158 3.08742 16.5141 2.48575C15.3029 1.28242 13.3554 1.28242 12.1441 2.48575L9.30995 5.32784L8.67662 5.96117L8.11453 6.52325C7.50493 7.12492 7.2041 7.91658 7.2041 8.70825C7.2041 8.88242 7.21993 9.04867 7.24368 9.21492C7.25159 9.22284 7.2516 9.23867 7.2516 9.2545C7.28327 9.41283 7.32284 9.56325 7.37826 9.71367C7.52076 10.1412 7.76618 10.5449 8.11453 10.8853C8.2887 11.0595 8.4787 11.2099 8.67662 11.3287" stroke-miterlimit="10" stroke-linecap="round" stroke-linejoin="round"/>
<path d="M4.92421 9.70573L2.48587 12.1441C1.88421 12.7457 1.58337 13.5374 1.58337 14.3291C1.58337 15.1207 1.88421 15.9124 2.48587 16.5141C3.69712 17.7174 5.64462 17.7174 6.85587 16.5141L9.69004 13.672L10.3234 13.0386L10.8855 12.4766C11.495 11.8749 11.7959 11.0832 11.7959 10.2916C11.7959 10.1174 11.78 9.95114 11.7563 9.78489C11.7484 9.77698 11.7484 9.76114 11.7484 9.74531C11.7167 9.58698 11.6771 9.43656 11.6217 9.28614C11.4792 8.85864 11.2338 8.45489 10.8855 8.11448C10.7113 7.94031 10.5213 7.78989 10.3234 7.67114" stroke-miterlimit="10" stroke-linecap="round" stroke-linejoin="round"/>
</svg>
